{
    "name": "MattRGeorge.MattRGeorgeVR.Runtime",
    "references": [
        "GUID:68f4d0edd50df6b4d82528447815d2be",
        "GUID:e40ba710768534012815d3193fa296cb"
    ],
    "includePlatforms": [],
    "excludePlatforms": [],
    "allowUnsafeCode": false,
    "overrideReferences": false,
    "precompiledReferences": [],
    "autoReferenced": true,
    "defineConstraints": [],
    "versionDefines": [],
    "noEngineReferences": false
}